Hydra v8.8 (c) 2019 by van Hauser/THC - Please do not use in military or secret service organizations, or for illegal purposes.

Hydra (https://github.com/vanhauser-thc/thc-hydra) starting at 2020-02-26 11:49:01
[DATA] max 16 tasks per 1 server, overall 16 tasks, 499 login tries (l:1/p:499), ~32 tries per task
[DATA] attacking telnet://172.100.0.250:23/
[STATUS] 144.00 tries/min, 144 tries in 00:01h, 355 to do in 00:03h, 16 active
[STATUS] 113.00 tries/min, 339 tries in 00:03h, 160 to do in 00:02h, 16 active
[STATUS] 71.29 tries/min, 499 tries in 00:07h, 1 to do in 00:01h, 1 active
[STATUS] 62.38 tries/min, 499 tries in 00:08h, 1 to do in 00:01h, 1 active
[STATUS] 55.44 tries/min, 499 tries in 00:09h, 1 to do in 00:01h, 1 active
[STATUS] 49.90 tries/min, 499 tries in 00:10h, 1 to do in 00:01h, 1 active
[STATUS] 45.36 tries/min, 499 tries in 00:11h, 1 to do in 00:01h, 1 active
[STATUS] 41.58 tries/min, 499 tries in 00:12h, 1 to do in 00:01h, 1 active
[STATUS] 38.38 tries/min, 499 tries in 00:13h, 1 to do in 00:01h, 1 active
[STATUS] 35.64 tries/min, 499 tries in 00:14h, 1 to do in 00:01h, 1 active
[STATUS] 33.27 tries/min, 499 tries in 00:15h, 1 to do in 00:01h, 1 active
[STATUS] 31.19 tries/min, 499 tries in 00:16h, 1 to do in 00:01h, 1 active
[STATUS] 29.35 tries/min, 499 tries in 00:17h, 1 to do in 00:01h, 1 active
[STATUS] 27.72 tries/min, 499 tries in 00:18h, 1 to do in 00:01h, 1 active
[STATUS] 26.26 tries/min, 499 tries in 00:19h, 1 to do in 00:01h, 1 active
[STATUS] 24.95 tries/min, 499 tries in 00:20h, 1 to do in 00:01h, 1 active
[STATUS] 23.76 tries/min, 499 tries in 00:21h, 1 to do in 00:01h, 1 active
[STATUS] 22.68 tries/min, 499 tries in 00:22h, 1 to do in 00:01h, 1 active
[STATUS] 21.70 tries/min, 499 tries in 00:23h, 1 to do in 00:01h, 1 active
[STATUS] 20.79 tries/min, 499 tries in 00:24h, 1 to do in 00:01h, 1 active
[STATUS] 19.96 tries/min, 499 tries in 00:25h, 1 to do in 00:01h, 1 active
[STATUS] 19.19 tries/min, 499 tries in 00:26h, 1 to do in 00:01h, 1 active
[STATUS] 18.48 tries/min, 499 tries in 00:27h, 1 to do in 00:01h, 1 active
[STATUS] 17.82 tries/min, 499 tries in 00:28h, 1 to do in 00:01h, 1 active
[STATUS] 17.21 tries/min, 499 tries in 00:29h, 1 to do in 00:01h, 1 active
[STATUS] 16.63 tries/min, 499 tries in 00:30h, 1 to do in 00:01h, 1 active
[STATUS] 16.10 tries/min, 499 tries in 00:31h, 1 to do in 00:01h, 1 active
[STATUS] 15.59 tries/min, 499 tries in 00:32h, 1 to do in 00:01h, 1 active
[STATUS] 15.12 tries/min, 499 tries in 00:33h, 1 to do in 00:01h, 1 active
[STATUS] 14.68 tries/min, 499 tries in 00:34h, 1 to do in 00:01h, 1 active
[STATUS] 14.26 tries/min, 499 tries in 00:35h, 1 to do in 00:01h, 1 active
[STATUS] 13.86 tries/min, 499 tries in 00:36h, 1 to do in 00:01h, 1 active
[STATUS] 13.49 tries/min, 499 tries in 00:37h, 1 to do in 00:01h, 1 active
[STATUS] 13.13 tries/min, 499 tries in 00:38h, 1 to do in 00:01h, 1 active
[STATUS] 12.79 tries/min, 499 tries in 00:39h, 1 to do in 00:01h, 1 active
[STATUS] 12.47 tries/min, 499 tries in 00:40h, 1 to do in 00:01h, 1 active
[STATUS] 12.17 tries/min, 499 tries in 00:41h, 1 to do in 00:01h, 1 active
[STATUS] 11.88 tries/min, 499 tries in 00:42h, 1 to do in 00:01h, 1 active
